Product Code,Final Price
886870,RRP $448.00
886954,RRP $750.00
886994,RRP $245.00
886995,RRP $200.00
886996,RRP $143.00
887777,RRP $504.00
895418,RRP $253.00
895509,RRP $338.00
895729,RRP $265.00
896055,RRP $75.00
896361,RRP $583.00
897021,RRP $141.00
897773,RRP $1109.00
897774,RRP $131.00
977430,RRP $341.00
977567,RRP $169.00
977702,RRP $361.00
977703,RRP $471.00
977711,RRP $123.00
977712,RRP $296.00
977713,RRP $259.00
977716,RRP $215.00
977789,RRP $289.00
978221,RRP $199.00
978262,RRP $2199.00
983033,RRP $361.00
983037,RRP $373.00
983058,RRP $124.00
983071,RRP $1154.00
983072,RRP $236.00
983073,RRP $189.00
983149,RRP $378.00
983151,RRP $188.00
983152,RRP $378.00
983155,RRP $390.00
983157,RRP $150.00
983161,RRP $372.00
983162,RRP $1281.00
983163,RRP $444.00
983165,RRP $309.00
983166,RRP $433.00
983169,RRP $1414.00
983170,RRP $92.00
983173,RRP $254.00
983174,RRP $272.00
983181,RRP $1470.00
983303,RRP $275.00
983308,RRP $340.00
8877724,RRP $518.00
8877744,RRP $415.00
2S000028,RRP $292.00
2S000031,RRP $671.00
2S000032,RRP $489.00
2S000034,RRP $136.00
2S000038,RRP $345.00
2S000039,RRP $398.00
2S000062,RRP $200.00
2S000063,RRP $404.00
2S000147,RRP $869.00
2S000148,RRP $900.00
2S000149,RRP $252.00
2S000150,RRP $222.00
2S000152,RRP $881.00
2S000153,RRP $912.00
2S000154,RRP $238.00
2S000155,RRP $259.00
2S000156,RRP $111.00
2S000157,RRP $352.00
2S000166,RRP $110.00
2S000168,RRP $74.00
2S000169,RRP $166.00
2S000170,RRP $79.00
2S000172,RRP $98.00
2S000173,RRP $186.00
2S000174,RRP $186.00
2S000176,RRP $452.00
2S000178,RRP $466.00
2S000179,RRP $477.00
2S000180,RRP $1136.00
2S000206,RRP $202.00
2S000207,RRP $234.00
2S000256,RRP $270.00
2S000258,RRP $70.00
2S000259,RRP $381.00
2S000260,RRP $330.00
2S000261,RRP $694.00
2S000262,RRP $336.00
2S000264,RRP $394.00
2S000265,RRP $290.00
2S000266,RRP $73.00
2S000280,RRP $235.00
2S000282,RRP $204.00
2S000294,RRP $284.00
2S000295,RRP $394.00
2S000296,RRP $390.00
2S000297,RRP $390.00
2S000311,RRP $1888.00
2S000313,RRP $1888.00
2S000320,RRP $74.00
2S000323,RRP $37.00
2S000324,RRP $32.00
2S000325,RRP $32.00
2S000330,RRP $821.00
2S000331,RRP $782.00
2S000333,RRP $821.00
2S000334,RRP $444.00
2S000335,RRP $444.00
2S000336,RRP $159.00
2S000337,RRP $193.00
2S000338,RRP $193.00
2S000339,RRP $147.00
2S000341,RRP $152.00
2S000342,RRP $295.00
2S000343,RRP $295.00
2S000344,RRP $204.00
2S000345,RRP $204.00
2S000346,RRP $374.00
2S000347,RRP $374.00
2S000348,RRP $182.00
2S000349,RRP $411.00
2S000350,RRP $374.00
2S000351,RRP $193.00
2S000352,RRP $493.00
2S000353,RRP $227.00
2S000363,RRP $406.00
2S000364,RRP $406.00
2S000366,RRP $384.00
2S000399,RRP $227.00
2S000400,RRP $159.00
2S000402,RRP $184.00
2S000462,RRP $372.00
2S000464,RRP $234.00
2S000467,RRP $429.00
2S000524,RRP $374.00
2S000525,RRP $628.00
2S000526,RRP $2018.00
2S000527,RRP $1113.00
2S000538,RRP $421.00
2S000542,RRP $502.00
2S000544,RRP $390.00
2S000546,RRP $390.00
2S000547,RRP $398.00
2S000548,RRP $286.00
2S000600,RRP $363.00
2S000602,RRP $386.00
2S000603,RRP $386.00
2S000605,RRP $204.00
2S000610,RRP $771.00
2S000611,RRP $771.00
605853M,RRP $415.00
605854M,RRP $355.00
605982M,RRP $222.00
605983M,RRP $53.00
605985M,RRP $48.00
605986M,RRP $68.00
605987M,RRP $65.00
605989M,RRP $325.00
605990M,RRP $1429.00
605991M,RRP $315.00
605993M,RRP $368.00
606007M,RRP $1338.00
606014M,RRP $388.00
606018M,RRP $450.00
606024M,RRP $227.00
606026M,RRP $550.00
606028M0001,RRP $411.00
606028M0002,RRP $411.00
606091M,RRP $1109.00
606094M,RRP $657.00
606123M,RRP $53.00
606124M,RRP $159.00
606161M,RRP $688.00
606162M,RRP $340.00
606163M,RRP $254.00
606166M,RRP $388.00
606167M,RRP $399.00
606180M,RRP $1739.00
606246M002,RRP $259.00
606246M004,RRP $132.00
606255M,RRP $40.00
606329M,RRP $1054.00
983148YA2,RRP $1233.00
B063096,RRP $1175.00
B063103,RRP $755.00
B063588,RRP $402.00
B063597,RRP $336.00
B063598,RRP $327.00
B063624,RRP $516.00
B063838,RRP $425.00
B063843,RRP $466.00
B063992,RRP $700.00
B064004,RRP $1437.00
B064235,RRP $180.00
B064236,RRP $340.00
B064237,RRP $647.00
B064238,RRP $340.00
B064239,RRP $1906.00
B064241,RRP $218.00
B064242,RRP $225.00
B064243,RRP $175.00
B064244,RRP $585.00
B064245,RRP $628.00
B064246,RRP $145.00
B064247,RRP $522.00
B064248,RRP $1149.00
B064249,RRP $512.00
B064250,RRP $388.00
B064251,RRP $498.00
B064252,RRP $425.00
B064253,RRP $100.00
B064254,RRP $365.00
B064255,RRP $175.00
B064256,RRP $175.00
B064257,RRP $300.00
B064259,RRP $231.00
B064270,RRP $240.00
B064272,RRP $159.00
B064286,RRP $275.00
B064288,RRP $190.00
B064289,RRP $562.00
CM226702,RRP $554.00
CM226704,RRP $440.00
CM226705,RRP $382.00
CM226706,RRP $419.00
CM228501,RRP $750.00
CM228502,RRP $750.00
CM228703,RRP $1598.00
CM262801,RRP $2312.00
GU03484374,RRP $157.00
GU03484379,RRP $162.00
GU05481530,RRP $365.00
GU05487631,RRP $454.00
GU05677230,RRP $222.00
GU06480100,RRP $798.00
GU06481500,RRP $359.00
GU06481501,RRP $329.00
GU06677200,RRP $184.00
GU069772004,RRP $340.00
GU95040300002,RRP $123.00
GU97012400000,RRP $1151.00
GU973217100003,RRP $231.00
GU973217200003,RRP $418.00
GU973217200005,RRP $1033.00
GU973217200007,RRP $179.00
GU973217200008,RRP $76.00
GU973221100005,RRP $323.00
GU973221100006,RRP $849.00
GU973221100007,RRP $196.00
GU973221100015,RRP $196.00
GU973221100021,RRP $60.00
GU973221100024,RRP $344.00
GU973243500000,RRP $229.00
GU973243500001,RRP $281.00
GU973243500010,RRP $322.00
GU973253500001,RRP $266.00
GU97325740001,RRP $179.00
GU973258400001,RRP $219.00
GU973270000002,RRP $223.00
GU973270000005,RRP $179.00
GU973270000007,RRP $376.00
