Product SKU,Excerpt
2S000325,RRP $32
2S000324,RRP $32
2S000323,RRP $37
606255M,RRP $40
605985M,RRP $48
606123M,RRP $53
605983M,RRP $53
GU973221100021,RRP $60
605987M,RRP $65
606181M,RRP $66
605986M,RRP $68
2S000258,RRP $70
2S000266,RRP $73
2S000168,RRP $74
2S000320,RRP $74
606414M,RRP $75
606415M,RRP $75
896055,RRP $75
GU973217200008,RRP $76
2S000170,RRP $79
983170,RRP $92
2S000172,RRP $98
B064253,RRP $100
2S000166,RRP $110
2S000156,RRP $111
2S000451,RRP $116
605923M005,RRP $121
GU95040300002,RRP $123
977711,RRP $123
983058,RRP $124
2S000807,RRP $131
897774,RRP $131
605923M006,RRP $131
2S000034,RRP $136
606246M004,RRP $138
886996,RRP $143
B064246,RRP $145
2S000339,RRP $147
983157,RRP $150
2S000341,RRP $152
2S000400,RRP $159
606124M,RRP $159
2S000336,RRP $159
B064272,RRP $159
GU03484379,RRP $162
2S000169,RRP $166
977567,RRP $169
B064256,RRP $175
B064255,RRP $175
GU973270000005,RRP $179
GU97325740001,RRP $179
GU973217200007,RRP $179
B064235,RRP $180
2S000348,RRP $182
B064243,RRP $183
GU06677200,RRP $184
2S000402,RRP $184
2S000173,RRP $186
2S000174,RRP $186
2B003377,RRP $188
983151,RRP $188
983073,RRP $189
B064288,RRP $190
2S000812,RRP $193
2S000351,RRP $193
2S000338,RRP $193
2S000337,RRP $193
GU973221100015,RRP $196
GU973221100007,RRP $196
2S000403,RRP $197
978221,RRP $199
886995,RRP $200
2S000062,RRP $200
2S000282,RRP $204
2S000605,RRP $204
977716,RRP $215
2B003378,RRP $216
2S000818,RRP $216
2S000759,RRP $216
B064241,RRP $218
GU05677230,RRP $222
2S000150,RRP $222
GU973270000002,RRP $223
B064242,RRP $225
2S000399,RRP $227
2S000353,RRP $227
GU973243500000,RRP $229
GU973217100003,RRP $231
B064259,RRP $231
605982M,RRP $232
2S000207,RRP $234
2S000464,RRP $234
2B003375,RRP $235
2S000280,RRP $235
983072,RRP $236
606024M,RRP $237
2S000154,RRP $238
B064270,RRP $240
886994,RRP $245
2S000149,RRP $252
895418,RRP $253
983173,RRP $254
606163M,RRP $254
977713,RRP $259
2S000155,RRP $259
606246M002,RRP $259
895729,RRP $265
GU973253500001,RRP $266
2S000256,RRP $270
983174,RRP $272
983303,RRP $275
B064286,RRP $275
2S000028,RRP $279
GU973243500001,RRP $281
2S000294,RRP $284
2S000548,RRP $286
977789,RRP $289
2S000265,RRP $290
2B003381,RRP $293
977712,RRP $296
B064257,RRP $300
606413M01R,RRP $315
606413M01W,RRP $315
606413M01YL,RRP $315
606412M01G,RRP $315
606412M01YO,RRP $315
605991M,RRP $315
GU973243500010,RRP $322
GU973221100005,RRP $323
605989M,RRP $325
B063598,RRP $327
GU06481501,RRP $329
2S000260,RRP $330
B063597,RRP $336
2S000262,RRP $336
2S000815,RRP $338
2S000814,RRP $338
895509,RRP $338
GU069772004,RRP $340
983308,RRP $340
606162M,RRP $340
B064236,RRP $340
977430,RRP $341
GU973221100024,RRP $344
2S000038,RRP $345
2S000466,RRP $347
605854M,RRP $355
GU06481500,RRP $359
2S000772,RRP $361
983033,RRP $361
977702,RRP $361
2S000600,RRP $363
2S000724,RRP $365
2S000819,RRP $365
GU05481530,RRP $365
B064254,RRP $365
983161,RRP $372
2S000462,RRP $372
983037,RRP $373
2S000346,RRP $374
2S000524,RRP $374
2S000350,RRP $374
2S000347,RRP $374
GU973270000007,RRP $376
983152,RRP $378
983149,RRP $378
2S000259,RRP $381
2S000039,RRP $381
CM226705,RRP $382
2B003376,RRP $383
2S000809,RRP $383
2S000811,RRP $383
2S000732,RRP $384
2S000733,RRP $384
2S000366,RRP $384
2S000602,RRP $386
2S000603,RRP $386
606166M,RRP $388
B064250,RRP $388
2S000297,RRP $390
2S000296,RRP $390
983155,RRP $390
2S000546,RRP $390
2S000544,RRP $390
2S000295,RRP $394
2S000264,RRP $394
2S000547,RRP $398
606167M,RRP $399
B063588,RRP $402
2S000063,RRP $404
2B003369,RRP $406
2S000364,RRP $406
2S000363,RRP $406
606028M0002,RRP $411
606028M0001,RRP $411
2S000349,RRP $411
605853M,RRP $415
GU973217200003,RRP $418
CM226706,RRP $419
2S000538,RRP $421
2B003372,RRP $423
605993M,RRP $423
B063838,RRP $425
B064252,RRP $425
2S000467,RRP $429
CM226704,RRP $440
2B003380,RRP $442
2B003374,RRP $442
606014M,RRP $443
983163,RRP $444
2S000335,RRP $444
2S000334,RRP $444
886870,RRP $448
2S000176,RRP $452
GU05487631,RRP $454
2S000810,RRP $462
B063843,RRP $466
2S000178,RRP $466
2S000032,RRP $467
977703,RRP $471
606018M,RRP $471
2S000179,RRP $477
2S000352,RRP $493
B064251,RRP $498
2S000808,RRP $500
2S000542,RRP $502
B064249,RRP $512
B063624,RRP $516
2B003379,RRP $520
B064247,RRP $522
606026M,RRP $550
CM226702,RRP $554
B064289,RRP $562
896361,RRP $583
B064244,RRP $585
2S000525,RRP $628
B064245,RRP $628
B064237,RRP $647
606094M,RRP $657
2S000031,RRP $671
2S000729,RRP $674
2S000723,RRP $674
606161M,RRP $688
B063992,RRP $700
2S000261,RRP $726
CM228502,RRP $750
CM228501,RRP $750
B063103,RRP $755
2S000610,RRP $771
2S000611,RRP $771
GU06480100,RRP $798
2S000331,RRP $819
GU973221100006,RRP $849
2S000333,RRP $859
2S000330,RRP $859
2S000147,RRP $869
2S000152,RRP $881
2B003373,RRP $888
2S000148,RRP $900
2S000153,RRP $912
GU973217200005,RRP $1033
606329M,RRP $1054
897773,RRP $1109
606091M,RRP $1109
2S000527,RRP $1113
2S000180,RRP $1136
B064248,RRP $1149
GU97012400000,RRP $1151
983071,RRP $1154
2S000731,RRP $1157
B063096,RRP $1175
983162,RRP $1281
606007M,RRP $1338
983169,RRP $1414
605990M,RRP $1429
B064004,RRP $1437
983181,RRP $1470
CM228703,RRP $1598
606180M,RRP $1739
2S000522,RRP $1892
B064239,RRP $1906
2S000311,RRP $1975
2S000313,RRP $1975
2S000526,RRP $2018
978262,RRP $2199
CM262801,RRP $2312
CM262802,RRP $2312
CM262803,RRP $2335
CM262804,RRP $2347
