sku,excerpt
977706Y01,RRP $2666.44
977430,RRP $408
977703,RRP $539
897773,RRP $1201
983037,RRP $447
983149,RRP $453
983165,RRP $354
977702,RRP $413
983152,RRP $453
983071,RRP $1231
983166,RRP $495
895509,RRP $386
GU973217200004,RRP $481
983072,RRP $282
983151,RRP $214
983174,RRP $250
983169,RRP $1545
2B001785,RRP $676.86
977716,RRP $246
983181,RRP $1350
977712,RRP $338
983161,RRP $363
978221,RRP $228
983033,RRP $297
983073,RRP $227
983303,RRP $221
2B001569,RRP $197.79
2B001568,RRP $197.79
2S000155,RRP $298
896055,RRP $69
887778,RRP $389.3
886678,RRP $15.96
898174,RRP $15.96
897021,RRP $90
886994,RRP $201
983308,RRP $303
977789,RRP $330
983157,RRP $107
983170,RRP $105
977567,RRP $202
2S000346,RRP $354
983058,RRP $148
977713,RRP $296
2S000148,RRP $864
983163,RRP $394
8877724,RRP $612
896361,RRP $667
983173,RRP $147
983162,RRP $1290
983155,RRP $311
GU973243500000,RRP $136.23
GU973217200003,RRP $383
