total 1.2M
-rw-rw-r-- 1 ubuntu ubuntu  30K Dec 23 12:45 1200-sport.html
-rw-rw-r-- 1 ubuntu ubuntu  30K Dec 23 12:45 cali-audace.html
-rw-rw-r-- 1 ubuntu ubuntu  30K Dec 23 12:45 cali-custom.html
-rw-rw-r-- 1 ubuntu ubuntu  31K Dec 23 12:45 cali-eldorado.html
-rw-rw-r-- 1 ubuntu ubuntu  30K Dec 23 12:45 cali-touring.html
-rw-rw-r-- 1 ubuntu ubuntu  31K Dec 23 12:45 cali-touring-se.html
-rw-rw-r-- 1 ubuntu ubuntu  13K Dec 23 12:45 contact-us.html
drwxrwxr-x 2 ubuntu ubuntu 4.0K Dec 23 16:19 css
-rw-rw-r-- 1 ubuntu ubuntu  15K Dec 23 12:45 customercare.php
-rw-rw-r-- 1 ubuntu ubuntu  16K Dec 23 12:45 dealers-act.html
-rw-rw-r-- 1 ubuntu ubuntu  15K Dec 23 12:45 dealers.html
-rw-rw-r-- 1 ubuntu ubuntu  38K Dec 23 12:45 Dealers info_batchgeo.xls
-rw-rw-r-- 1 ubuntu ubuntu  23K Dec 23 12:45 dealers-nsw.html
-rw-rw-r-- 1 ubuntu ubuntu  17K Dec 23 12:45 dealers-nt.html
-rw-rw-r-- 1 ubuntu ubuntu  21K Dec 23 12:45 dealers-qld.html
-rw-rw-r-- 1 ubuntu ubuntu  16K Dec 23 12:45 dealers-sa.html
-rw-rw-r-- 1 ubuntu ubuntu  17K Dec 23 12:45 dealers-tas.html
-rw-rw-r-- 1 ubuntu ubuntu  18K Dec 23 12:45 dealers-vic.html
-rw-rw-r-- 1 ubuntu ubuntu  17K Dec 23 12:45 dealers-wa.html
-rw-rw-r-- 1 ubuntu ubuntu  13K Dec 23 12:45 error_customercare.php
-rw-rw-r-- 1 ubuntu ubuntu  13K Dec 23 12:45 error_interest.php
-rw-rw-r-- 1 ubuntu ubuntu  13K Dec 23 12:45 error_manual.php
-rw-rw-r-- 1 ubuntu ubuntu  13K Dec 23 12:45 error_ownership.php
-rw-rw-r-- 1 ubuntu ubuntu  13K Dec 23 12:45 error_service.php
-rw-rw-r-- 1 ubuntu ubuntu  13K Dec 23 12:45 error_testride.php
drwxrwxr-x 2 ubuntu ubuntu 4.0K Dec 23 16:19 fonts
-rw-rw-r-- 1 ubuntu ubuntu  28K Dec 23 12:45 griso-se.html
-rw-rw-r-- 1 ubuntu ubuntu  17K Dec 23 12:45 history.html
drwxrwxr-x 2 ubuntu ubuntu  12K Dec 23 16:19 images
-rw-rw-r-- 1 ubuntu ubuntu 9.2K Dec 23 12:45 index.html
drwxrwxr-x 2 ubuntu ubuntu 4.0K Dec 23 16:18 js
-rw-rw-r-- 1 ubuntu ubuntu  15K Dec 23 12:45 models.html
-rw-rw-r-- 1 ubuntu ubuntu  16K Dec 23 12:45 news.html
-rw-rw-r-- 1 ubuntu ubuntu  19K Dec 23 12:45 ownership.php
-rw-rw-r-- 1 ubuntu ubuntu  15K Dec 23 12:45 owners-manual.php
drwxrwxr-x 2 ubuntu ubuntu 4.0K Dec 23 16:18 pdfs
-rw-rw-r-- 1 ubuntu ubuntu  13K Dec 23 12:45 promo-1400audace.html
-rw-rw-r-- 1 ubuntu ubuntu  13K Dec 23 12:45 promo-95sale.html
-rw-rw-r-- 1 ubuntu ubuntu  14K Dec 23 12:45 promo-cali.html
-rw-rw-r-- 1 ubuntu ubuntu  14K Dec 23 12:45 promotions.html
-rw-rw-r-- 1 ubuntu ubuntu  14K Dec 23 12:45 promo-v7II.html
-rw-rw-r-- 1 ubuntu ubuntu  18K Dec 23 12:45 ridereq.php
-rw-r--r-- 1 root   root      0 Jan 11 17:05 rightsdump20170111.txt
-rw-rw-r-- 1 ubuntu ubuntu  20K Dec 23 12:45 service-motomoda.php
-rw-rw-r-- 1 ubuntu ubuntu  29K Dec 23 12:45 stelvio-ntx.html
-rw-rw-r-- 1 ubuntu ubuntu  13K Dec 23 12:45 success_customercare.php
-rw-rw-r-- 1 ubuntu ubuntu  13K Dec 23 12:45 success_interest.php
-rw-rw-r-- 1 ubuntu ubuntu  13K Dec 23 12:45 success_manual.php
-rw-rw-r-- 1 ubuntu ubuntu  13K Dec 23 12:45 success_ownership.php
-rw-rw-r-- 1 ubuntu ubuntu  13K Dec 23 12:45 success_service.php
-rw-rw-r-- 1 ubuntu ubuntu  13K Dec 23 12:45 success_testride.php
-rw-rw-r-- 1 ubuntu ubuntu  29K Dec 23 12:45 v7-II-racer.html
-rw-rw-r-- 1 ubuntu ubuntu  29K Dec 23 12:45 v7-II-special.html
-rw-rw-r-- 1 ubuntu ubuntu  29K Dec 23 12:45 v7-II-stone.html
-rw-rw-r-- 1 ubuntu ubuntu  29K Dec 23 12:45 v7-II-stornello.html
-rw-rw-r-- 1 ubuntu ubuntu  30K Dec 23 12:45 v9-bobber.html
-rw-rw-r-- 1 ubuntu ubuntu  31K Dec 23 12:45 v9-roamer.html
-rw-rw-r-- 1 ubuntu ubuntu 2.5K Dec 23 12:45 validate_customercare.php
-rw-rw-r-- 1 ubuntu ubuntu 3.2K Dec 23 12:45 validate_interest.php
-rw-rw-r-- 1 ubuntu ubuntu 2.0K Dec 23 12:45 validate_manual.php
-rw-rw-r-- 1 ubuntu ubuntu 3.0K Dec 23 12:45 validate_ownership.php
-rw-rw-r-- 1 ubuntu ubuntu 3.3K Dec 23 12:45 validate_ridereq.php
-rw-rw-r-- 1 ubuntu ubuntu 2.5K Dec 23 12:45 validate_service.php
-rw-rw-r-- 1 ubuntu ubuntu  462 Dec 23 12:45 validate_test.php
-rw-rw-r-- 1 ubuntu ubuntu  18K Dec 23 12:45 warranty-policy.html
-rw-rw-r-- 1 ubuntu ubuntu 29K Dec 23 12:45 ./v7-II-stone.html
-rw-rw-r-- 1 ubuntu ubuntu 14K Dec 23 12:45 ./promo-cali.html
-rw-rw-r-- 1 ubuntu ubuntu 17K Dec 23 12:45 ./dealers-tas.html
-rw-rw-r-- 1 ubuntu ubuntu 17K Dec 23 12:45 ./dealers-nt.html
-rw-rw-r-- 1 ubuntu ubuntu 13K Dec 23 12:45 ./error_manual.php
total 220K
-rw-rw-r-- 1 ubuntu ubuntu  20K Dec 23 12:45 glyphicons-halflings-regular.eot
-rw-rw-r-- 1 ubuntu ubuntu 107K Dec 23 12:45 glyphicons-halflings-regular.svg
-rw-rw-r-- 1 ubuntu ubuntu  45K Dec 23 12:45 glyphicons-halflings-regular.ttf
-rw-rw-r-- 1 ubuntu ubuntu  23K Dec 23 12:45 glyphicons-halflings-regular.woff
-rw-rw-r-- 1 ubuntu ubuntu  18K Dec 23 12:45 glyphicons-halflings-regular.woff2
-rw-rw-r-- 1 ubuntu ubuntu 18K Dec 23 12:45 ./fonts/glyphicons-halflings-regular.woff2
-rw-rw-r-- 1 ubuntu ubuntu 107K Dec 23 12:45 ./fonts/glyphicons-halflings-regular.svg
-rw-rw-r-- 1 ubuntu ubuntu 45K Dec 23 12:45 ./fonts/glyphicons-halflings-regular.ttf
-rw-rw-r-- 1 ubuntu ubuntu 23K Dec 23 12:45 ./fonts/glyphicons-halflings-regular.woff
-rw-rw-r-- 1 ubuntu ubuntu 20K Dec 23 12:45 ./fonts/glyphicons-halflings-regular.eot
-rw-rw-r-- 1 ubuntu ubuntu 13K Dec 23 12:45 ./success_service.php
-rw-rw-r-- 1 ubuntu ubuntu 2.5K Dec 23 12:45 ./validate_service.php
-rw-rw-r-- 1 ubuntu ubuntu 29K Dec 23 12:45 ./stelvio-ntx.html
-rw-rw-r-- 1 ubuntu ubuntu 3.0K Dec 23 12:45 ./validate_ownership.php
-rw-rw-r-- 1 ubuntu ubuntu 13K Dec 23 12:45 ./error_ownership.php
-rw-r--r-- 1 root root 5.4K Jan 11 17:05 ./rightsdump20170111.txt
-rw-rw-r-- 1 ubuntu ubuntu 15K Dec 23 12:45 ./customercare.php
-rw-rw-r-- 1 ubuntu ubuntu 30K Dec 23 12:45 ./cali-audace.html
-rw-rw-r-- 1 ubuntu ubuntu 17K Dec 23 12:45 ./history.html
-rw-rw-r-- 1 ubuntu ubuntu 13K Dec 23 12:45 ./contact-us.html
-rw-rw-r-- 1 ubuntu ubuntu 18K Dec 23 12:45 ./dealers-vic.html
-rw-rw-r-- 1 ubuntu ubuntu 13K Dec 23 12:45 ./error_testride.php
-rw-rw-r-- 1 ubuntu ubuntu 13K Dec 23 12:45 ./promo-95sale.html
-rw-rw-r-- 1 ubuntu ubuntu 13K Dec 23 12:45 ./success_testride.php
total 8.9M
-rw-rw-r-- 1 ubuntu ubuntu 2.0M Dec 23 12:45 tech-spec-cali.pdf
-rw-rw-r-- 1 ubuntu ubuntu 1.9M Dec 23 12:45 tech-spec-eldo-aud.pdf
-rw-rw-r-- 1 ubuntu ubuntu 126K Dec 23 12:45 tech-spec-griso.pdf
-rw-rw-r-- 1 ubuntu ubuntu 128K Dec 23 12:45 tech-spec-stelvio-ntx.pdf
-rw-rw-r-- 1 ubuntu ubuntu 2.4M Dec 23 12:45 tech-spec-v7II.pdf
-rw-rw-r-- 1 ubuntu ubuntu 128K Dec 23 12:45 tech-spec-V7IIStornello.pdf
-rw-rw-r-- 1 ubuntu ubuntu 143K Dec 23 12:45 Thumbs.db
-rw-rw-r-- 1 ubuntu ubuntu 2.3M Dec 23 12:45 v9-range-brochure.pdf
-rw-rw-r-- 1 ubuntu ubuntu 1.9M Dec 23 12:45 ./pdfs/tech-spec-eldo-aud.pdf
-rw-rw-r-- 1 ubuntu ubuntu 128K Dec 23 12:45 ./pdfs/tech-spec-stelvio-ntx.pdf
-rw-rw-r-- 1 ubuntu ubuntu 2.3M Dec 23 12:45 ./pdfs/v9-range-brochure.pdf
-rw-rw-r-- 1 ubuntu ubuntu 2.4M Dec 23 12:45 ./pdfs/tech-spec-v7II.pdf
-rw-rw-r-- 1 ubuntu ubuntu 143K Dec 23 12:45 ./pdfs/Thumbs.db
-rw-rw-r-- 1 ubuntu ubuntu 126K Dec 23 12:45 ./pdfs/tech-spec-griso.pdf
-rw-rw-r-- 1 ubuntu ubuntu 128K Dec 23 12:45 ./pdfs/tech-spec-V7IIStornello.pdf
-rw-rw-r-- 1 ubuntu ubuntu 2.0M Dec 23 12:45 ./pdfs/tech-spec-cali.pdf
-rw-rw-r-- 1 ubuntu ubuntu 2.5K Dec 23 12:45 ./validate_customercare.php
-rw-rw-r-- 1 ubuntu ubuntu 2.0K Dec 23 12:45 ./validate_manual.php
-rw-rw-r-- 1 ubuntu ubuntu 16K Dec 23 12:45 ./dealers-sa.html
-rw-rw-r-- 1 ubuntu ubuntu 13K Dec 23 12:45 ./success_interest.php
-rw-rw-r-- 1 ubuntu ubuntu 20K Dec 23 12:45 ./service-motomoda.php
total 220K
-rw-rw-r-- 1 ubuntu ubuntu 1.7K Dec 23 12:45 bootstrap-hover-dropdown.min.js
-rw-rw-r-- 1 ubuntu ubuntu  36K Dec 23 12:45 bootstrap.min.js
-rw-rw-r-- 1 ubuntu ubuntu 5.1K Dec 23 12:45 diy-slidedown.js
-rw-rw-r-- 1 ubuntu ubuntu  53K Dec 23 12:45 jquery.cycle.all.min.js
-rw-rw-r-- 1 ubuntu ubuntu  94K Dec 23 12:45 jquery.js
-rw-rw-r-- 1 ubuntu ubuntu 7.8K Dec 23 12:45 jquery.maximage.min.js
-rw-rw-r-- 1 ubuntu ubuntu  366 Dec 23 12:45 rand.bg.js
-rw-rw-r-- 1 ubuntu ubuntu 5.2K Dec 23 12:45 responsive-tabs.js
-rw-rw-r-- 1 ubuntu ubuntu 94K Dec 23 12:45 ./js/jquery.js
-rw-rw-r-- 1 ubuntu ubuntu 5.1K Dec 23 12:45 ./js/diy-slidedown.js
-rw-rw-r-- 1 ubuntu ubuntu 366 Dec 23 12:45 ./js/rand.bg.js
-rw-rw-r-- 1 ubuntu ubuntu 36K Dec 23 12:45 ./js/bootstrap.min.js
-rw-rw-r-- 1 ubuntu ubuntu 53K Dec 23 12:45 ./js/jquery.cycle.all.min.js
-rw-rw-r-- 1 ubuntu ubuntu 7.8K Dec 23 12:45 ./js/jquery.maximage.min.js
-rw-rw-r-- 1 ubuntu ubuntu 5.2K Dec 23 12:45 ./js/responsive-tabs.js
-rw-rw-r-- 1 ubuntu ubuntu 1.7K Dec 23 12:45 ./js/bootstrap-hover-dropdown.min.js
-rw-rw-r-- 1 ubuntu ubuntu 9.2K Dec 23 12:45 ./index.html
-rw-rw-r-- 1 ubuntu ubuntu 30K Dec 23 12:45 ./v9-bobber.html
-rw-rw-r-- 1 ubuntu ubuntu 29K Dec 23 12:45 ./v7-II-special.html
-rw-rw-r-- 1 ubuntu ubuntu 31K Dec 23 12:45 ./cali-touring-se.html
-rw-rw-r-- 1 ubuntu ubuntu 462 Dec 23 12:45 ./validate_test.php
-rw-rw-r-- 1 ubuntu ubuntu 18K Dec 23 12:45 ./ridereq.php
-rw-rw-r-- 1 ubuntu ubuntu 28K Dec 23 12:45 ./griso-se.html
-rw-rw-r-- 1 ubuntu ubuntu 23K Dec 23 12:45 ./dealers-nsw.html
-rw-rw-r-- 1 ubuntu ubuntu 17K Dec 23 12:45 ./dealers-wa.html
-rw-rw-r-- 1 ubuntu ubuntu 13K Dec 23 12:45 ./error_customercare.php
-rw-rw-r-- 1 ubuntu ubuntu 3.2K Dec 23 12:45 ./validate_interest.php
-rw-rw-r-- 1 ubuntu ubuntu 30K Dec 23 12:45 ./1200-sport.html
-rw-rw-r-- 1 ubuntu ubuntu 14K Dec 23 12:45 ./promo-v7II.html
-rw-rw-r-- 1 ubuntu ubuntu 30K Dec 23 12:45 ./cali-custom.html
-rw-rw-r-- 1 ubuntu ubuntu 13K Dec 23 12:45 ./error_interest.php
-rw-rw-r-- 1 ubuntu ubuntu 21K Dec 23 12:45 ./dealers-qld.html
-rw-rw-r-- 1 ubuntu ubuntu 18K Dec 23 12:45 ./warranty-policy.html
-rw-rw-r-- 1 ubuntu ubuntu 29K Dec 23 12:45 ./v7-II-stornello.html
-rw-rw-r-- 1 ubuntu ubuntu 15K Dec 23 12:45 ./models.html
-rw-rw-r-- 1 ubuntu ubuntu 13K Dec 23 12:45 ./success_manual.php
-rw-rw-r-- 1 ubuntu ubuntu 13K Dec 23 12:45 ./success_customercare.php
-rw-rw-r-- 1 ubuntu ubuntu 15K Dec 23 12:45 ./dealers.html
-rw-rw-r-- 1 ubuntu ubuntu 38K Dec 23 12:45 ./Dealers info_batchgeo.xls
-rw-rw-r-- 1 ubuntu ubuntu 31K Dec 23 12:45 ./v9-roamer.html
-rw-rw-r-- 1 ubuntu ubuntu 19K Dec 23 12:45 ./ownership.php
-rw-rw-r-- 1 ubuntu ubuntu 16K Dec 23 12:45 ./dealers-act.html
-rw-rw-r-- 1 ubuntu ubuntu 13K Dec 23 12:45 ./promo-1400audace.html
-rw-rw-r-- 1 ubuntu ubuntu 30K Dec 23 12:45 ./cali-touring.html
-rw-rw-r-- 1 ubuntu ubuntu 13K Dec 23 12:45 ./error_service.php
-rw-rw-r-- 1 ubuntu ubuntu 3.3K Dec 23 12:45 ./validate_ridereq.php
total 292K
-rw-rw-r-- 1 ubuntu ubuntu 115K Dec 23 12:45 bootstrap.min.css
-rw-rw-r-- 1 ubuntu ubuntu  20K Dec 23 12:45 bootstrap-theme.min.css
-rw-rw-r-- 1 ubuntu ubuntu  655 Dec 23 12:45 full-slider.css
-rw-rw-r-- 1 ubuntu ubuntu 1.5K Dec 23 12:45 jquery.maximage.css
-rw-rw-r-- 1 ubuntu ubuntu 125K Dec 23 12:45 responsive-tabs.css
-rw-rw-r-- 1 ubuntu ubuntu  11K Dec 23 12:45 styles.css
-rw-rw-r-- 1 ubuntu ubuntu 6.6K Dec 23 12:45 stylesheet.css
-rw-rw-r-- 1 ubuntu ubuntu 6.6K Dec 23 12:45 ./css/stylesheet.css
-rw-rw-r-- 1 ubuntu ubuntu 125K Dec 23 12:45 ./css/responsive-tabs.css
-rw-rw-r-- 1 ubuntu ubuntu 115K Dec 23 12:45 ./css/bootstrap.min.css
-rw-rw-r-- 1 ubuntu ubuntu 655 Dec 23 12:45 ./css/full-slider.css
-rw-rw-r-- 1 ubuntu ubuntu 1.5K Dec 23 12:45 ./css/jquery.maximage.css
-rw-rw-r-- 1 ubuntu ubuntu 20K Dec 23 12:45 ./css/bootstrap-theme.min.css
-rw-rw-r-- 1 ubuntu ubuntu 11K Dec 23 12:45 ./css/styles.css
-rw-rw-r-- 1 ubuntu ubuntu 29K Dec 23 12:45 ./v7-II-racer.html
-rw-rw-r-- 1 ubuntu ubuntu 31K Dec 23 12:45 ./cali-eldorado.html
-rw-rw-r-- 1 ubuntu ubuntu 13K Dec 23 12:45 ./success_ownership.php
-rw-rw-r-- 1 ubuntu ubuntu 16K Dec 23 12:45 ./news.html
-rw-rw-r-- 1 ubuntu ubuntu 14K Dec 23 12:45 ./promotions.html
-rw-rw-r-- 1 ubuntu ubuntu 15K Dec 23 12:45 ./owners-manual.php
total 38M
-rw-rw-r-- 1 ubuntu ubuntu  87K Dec 23 12:45 1200-sport-corsa.jpg
-rw-rw-r-- 1 ubuntu ubuntu 9.8K Dec 23 12:45 1200-sport-corsa-small.jpg
-rw-rw-r-- 1 ubuntu ubuntu 192K Dec 23 12:45 1200-sport-hero.jpg
-rw-rw-r-- 1 ubuntu ubuntu 333K Dec 23 12:45 1200-sport-img1.jpg
-rw-rw-r-- 1 ubuntu ubuntu 321K Dec 23 12:45 1200-sport-img2.jpg
-rw-rw-r-- 1 ubuntu ubuntu 306K Dec 23 12:45 1200-sport-img3.jpg
-rw-rw-r-- 1 ubuntu ubuntu 423K Dec 23 12:45 1200-sport-img4.jpg
-rw-rw-r-- 1 ubuntu ubuntu 526K Dec 23 12:45 1200-sport-img5.jpg
-rw-rw-r-- 1 ubuntu ubuntu 296K Dec 23 12:45 1200-sport-img6.jpg
-rw-rw-r-- 1 ubuntu ubuntu  20K Dec 23 12:45 bike2.png
-rw-rw-r-- 1 ubuntu ubuntu  20K Dec 23 12:45 bike.png
-rw-rw-r-- 1 ubuntu ubuntu  49K Dec 23 12:45 cali-audace-black.jpg
-rw-rw-r-- 1 ubuntu ubuntu 5.1K Dec 23 12:45 cali-audace-black-small.jpg
-rw-rw-r-- 1 ubuntu ubuntu 127K Dec 23 12:45 cali-audace-hero.jpg
-rw-rw-r-- 1 ubuntu ubuntu 145K Dec 23 12:45 cali-audace-img1.jpg
-rw-rw-r-- 1 ubuntu ubuntu  90K Dec 23 12:45 cali-audace-img2.jpg
-rw-rw-r-- 1 ubuntu ubuntu 154K Dec 23 12:45 cali-audace-img3.jpg
-rw-rw-r-- 1 ubuntu ubuntu 163K Dec 23 12:45 cali-audace-img4.jpg
-rw-rw-r-- 1 ubuntu ubuntu 119K Dec 23 12:45 cali-audace-img5.jpg
-rw-rw-r-- 1 ubuntu ubuntu 149K Dec 23 12:45 cali-audace-img6.jpg
-rw-rw-r-- 1 ubuntu ubuntu  72K Dec 23 12:45 cali-custom-black.jpg
-rw-rw-r-- 1 ubuntu ubuntu 7.7K Dec 23 12:45 cali-custom-black-small.jpg
-rw-rw-r-- 1 ubuntu ubuntu  67K Dec 23 12:45 cali-custom-grey.jpg
-rw-rw-r-- 1 ubuntu ubuntu 7.6K Dec 23 12:45 cali-custom-grey-small.jpg
-rw-rw-r-- 1 ubuntu ubuntu 158K Dec 23 12:45 cali-custom-hero.jpg
-rw-rw-r-- 1 ubuntu ubuntu 277K Dec 23 12:45 cali-custom-img1.jpg
-rw-rw-r-- 1 ubuntu ubuntu 306K Dec 23 12:45 cali-custom-img2.jpg
-rw-rw-r-- 1 ubuntu ubuntu 438K Dec 23 12:45 cali-custom-img3.jpg
-rw-rw-r-- 1 ubuntu ubuntu 480K Dec 23 12:45 cali-custom-img4.jpg
-rw-rw-r-- 1 ubuntu ubuntu 287K Dec 23 12:45 cali-custom-img5.jpg
-rw-rw-r-- 1 ubuntu ubuntu 240K Dec 23 12:45 cali-custom-img6.jpg
-rw-rw-r-- 1 ubuntu ubuntu  50K Dec 23 12:45 cali-eldorado-black.jpg
-rw-rw-r-- 1 ubuntu ubuntu 5.5K Dec 23 12:45 cali-eldorado-black-small.jpg
-rw-rw-r-- 1 ubuntu ubuntu 225K Dec 23 12:45 cali-eldorado-hero.jpg
-rw-rw-r-- 1 ubuntu ubuntu 194K Dec 23 12:45 cali-eldorado-img1.jpg
-rw-rw-r-- 1 ubuntu ubuntu 188K Dec 23 12:45 cali-eldorado-img2.jpg
-rw-rw-r-- 1 ubuntu ubuntu 159K Dec 23 12:45 cali-eldorado-img3.jpg
-rw-rw-r-- 1 ubuntu ubuntu 171K Dec 23 12:45 cali-eldorado-img4.jpg
-rw-rw-r-- 1 ubuntu ubuntu 148K Dec 23 12:45 cali-eldorado-img5.jpg
-rw-rw-r-- 1 ubuntu ubuntu 159K Dec 23 12:45 cali-eldorado-img6.jpg
-rw-rw-r-- 1 ubuntu ubuntu  50K Dec 23 12:45 cali-eldorado-red.jpg
-rw-rw-r-- 1 ubuntu ubuntu 5.6K Dec 23 12:45 cali-eldorado-red-small.jpg
-rw-rw-r-- 1 ubuntu ubuntu 539K Dec 23 12:45 cali-hero-promo.jpg
-rw-rw-r-- 1 ubuntu ubuntu  80K Dec 23 12:45 cali-touring-black.jpg
-rw-rw-r-- 1 ubuntu ubuntu 7.8K Dec 23 12:45 cali-touring-black-small.jpg
-rw-rw-r-- 1 ubuntu ubuntu 232K Dec 23 12:45 cali-touring-hero.jpg
-rw-rw-r-- 1 ubuntu ubuntu 342K Dec 23 12:45 cali-touring-img1.jpg
-rw-rw-r-- 1 ubuntu ubuntu 423K Dec 23 12:45 cali-touring-img2.jpg
-rw-rw-r-- 1 ubuntu ubuntu 306K Dec 23 12:45 cali-touring-img3.jpg
-rw-rw-r-- 1 ubuntu ubuntu 341K Dec 23 12:45 cali-touring-img4.jpg
-rw-rw-r-- 1 ubuntu ubuntu 330K Dec 23 12:45 cali-touring-img5.jpg
-rw-rw-r-- 1 ubuntu ubuntu 267K Dec 23 12:45 cali-touring-img6.jpg
-rw-rw-r-- 1 ubuntu ubuntu  53K Dec 23 12:45 cali-touring-se-black.jpg
-rw-rw-r-- 1 ubuntu ubuntu 5.5K Dec 23 12:45 cali-touring-se-black-small.jpg
-rw-rw-r-- 1 ubuntu ubuntu 437K Dec 23 12:45 cali-touring-se-hero.jpg
-rw-rw-r-- 1 ubuntu ubuntu 109K Dec 23 12:45 cali-touring-se-img1.jpg
-rw-rw-r-- 1 ubuntu ubuntu 126K Dec 23 12:45 cali-touring-se-img2.jpg
-rw-rw-r-- 1 ubuntu ubuntu 125K Dec 23 12:45 cali-touring-se-img3.jpg
-rw-rw-r-- 1 ubuntu ubuntu 151K Dec 23 12:45 cali-touring-se-img4.jpg
-rw-rw-r-- 1 ubuntu ubuntu  94K Dec 23 12:45 cali-touring-se-img5.jpg
-rw-rw-r-- 1 ubuntu ubuntu 126K Dec 23 12:45 cali-touring-se-img6.jpg
-rw-rw-r-- 1 ubuntu ubuntu 196K Dec 23 12:45 cali-touring-se-new2.jpg
-rw-rw-r-- 1 ubuntu ubuntu 152K Dec 23 12:45 cali-touring-se-new.jpg
-rw-rw-r-- 1 ubuntu ubuntu  72K Dec 23 12:45 cali-touring-white.jpg
-rw-rw-r-- 1 ubuntu ubuntu 7.6K Dec 23 12:45 cali-touring-white-small.jpg
-rw-rw-r-- 1 ubuntu ubuntu 125K Dec 23 12:45 ewen_video.jpg
-rw-rw-r-- 1 ubuntu ubuntu 1.3K Dec 23 12:45 facebook-footer.png
-rw-rw-r-- 1 ubuntu ubuntu  85K Dec 23 12:45 fea-1200-sport.jpg
-rw-rw-r-- 1 ubuntu ubuntu 109K Dec 23 12:45 fea-cali-audace.jpg
-rw-rw-r-- 1 ubuntu ubuntu  79K Dec 23 12:45 fea-cali-custom.jpg
-rw-rw-r-- 1 ubuntu ubuntu 109K Dec 23 12:45 fea-cali-eldorado.jpg
-rw-rw-r-- 1 ubuntu ubuntu  85K Dec 23 12:45 fea-cali-touring.jpg
-rw-rw-r-- 1 ubuntu ubuntu 122K Dec 23 12:45 fea-cali-touring-se.jpg
-rw-rw-r-- 1 ubuntu ubuntu 111K Dec 23 12:45 fea-griso-se.jpg
-rw-rw-r-- 1 ubuntu ubuntu  75K Dec 23 12:45 fea-stelvio-ntx.jpg
-rw-rw-r-- 1 ubuntu ubuntu 119K Dec 23 12:45 fea-v7-II-racer.jpg
-rw-rw-r-- 1 ubuntu ubuntu 112K Dec 23 12:45 fea-v7-II-special.jpg
-rw-rw-r-- 1 ubuntu ubuntu  78K Dec 23 12:45 fea-v7-II-stone.jpg
-rw-rw-r-- 1 ubuntu ubuntu 190K Dec 23 12:45 fea-v7-II-stornello.jpg
-rw-rw-r-- 1 ubuntu ubuntu  51K Dec 23 12:45 fea-v9-bobber.jpg
-rw-rw-r-- 1 ubuntu ubuntu  53K Dec 23 12:45 fea-v9-roamer.jpg
-rw-rw-r-- 1 ubuntu ubuntu 148K Dec 23 12:45 gal-bobber-img1.jpg
-rw-rw-r-- 1 ubuntu ubuntu  81K Dec 23 12:45 gal-bobber-img2.jpg
-rw-rw-r-- 1 ubuntu ubuntu 111K Dec 23 12:45 gal-bobber-img3.jpg
-rw-rw-r-- 1 ubuntu ubuntu  84K Dec 23 12:45 gal-bobber-img4.jpg
-rw-rw-r-- 1 ubuntu ubuntu  89K Dec 23 12:45 gal-bobber-img5.jpg
-rw-rw-r-- 1 ubuntu ubuntu  95K Dec 23 12:45 gal-bobber-img6.jpg
-rw-rw-r-- 1 ubuntu ubuntu  77K Dec 23 12:45 gal-bobber-img7.jpg
-rw-rw-r-- 1 ubuntu ubuntu  57K Dec 23 12:45 gal-bobber-img8.jpg
-rw-rw-r-- 1 ubuntu ubuntu  57K Dec 23 12:45 gal-roamer-img1.jpg
-rw-rw-r-- 1 ubuntu ubuntu 141K Dec 23 12:45 gal-roamer-img2.jpg
-rw-rw-r-- 1 ubuntu ubuntu 105K Dec 23 12:45 gal-roamer-img3.jpg
-rw-rw-r-- 1 ubuntu ubuntu 120K Dec 23 12:45 gal-roamer-img4.jpg
-rw-rw-r-- 1 ubuntu ubuntu 148K Dec 23 12:45 gal-roamer-img5.jpg
-rw-rw-r-- 1 ubuntu ubuntu 144K Dec 23 12:45 gal-roamer-img6.jpg
-rw-rw-r-- 1 ubuntu ubuntu 117K Dec 23 12:45 gal-roamer-img7.jpg
-rw-rw-r-- 1 ubuntu ubuntu  58K Dec 23 12:45 gal-roamer-img8.jpg
-rw-rw-r-- 1 ubuntu ubuntu 135K Dec 23 12:45 gal-stornello-img1.jpg
-rw-rw-r-- 1 ubuntu ubuntu 142K Dec 23 12:45 gal-stornello-img2.jpg
-rw-rw-r-- 1 ubuntu ubuntu 138K Dec 23 12:45 gal-stornello-img3.jpg
-rw-rw-r-- 1 ubuntu ubuntu 163K Dec 23 12:45 gal-stornello-img4.jpg
-rw-rw-r-- 1 ubuntu ubuntu 169K Dec 23 12:45 gal-stornello-img5.jpg
-rw-rw-r-- 1 ubuntu ubuntu 168K Dec 23 12:45 gal-stornello-img6.jpg
-rw-rw-r-- 1 ubuntu ubuntu 610K Dec 23 12:45 griso-se-hero.jpg
-rw-rw-r-- 1 ubuntu ubuntu 175K Dec 23 12:45 griso-se-img1.jpg
-rw-rw-r-- 1 ubuntu ubuntu 129K Dec 23 12:45 griso-se-img2.jpg
-rw-rw-r-- 1 ubuntu ubuntu 164K Dec 23 12:45 griso-se-img3.jpg
-rw-rw-r-- 1 ubuntu ubuntu 292K Dec 23 12:45 griso-se-img4.jpg
-rw-rw-r-- 1 ubuntu ubuntu 648K Dec 23 12:45 griso-se-img5.jpg
-rw-rw-r-- 1 ubuntu ubuntu 488K Dec 23 12:45 griso-se-img6.jpg
-rw-rw-r-- 1 ubuntu ubuntu  88K Dec 23 12:45 griso-se-red.jpg
-rw-rw-r-- 1 ubuntu ubuntu 8.8K Dec 23 12:45 griso-se-red-small.jpg
-rw-rw-r-- 1 ubuntu ubuntu 650K Dec 23 12:45 hero-audace.jpg
-rw-rw-r-- 1 ubuntu ubuntu 193K Dec 23 12:45 hero-dealer.jpg
-rw-rw-r-- 1 ubuntu ubuntu 569K Dec 23 12:45 hero-eldorado.jpg
-rw-rw-r-- 1 ubuntu ubuntu 231K Dec 23 12:45 hero-ewan2.jpg
-rw-rw-r-- 1 ubuntu ubuntu 186K Dec 23 12:45 hero-ewan.jpg
-rw-rw-r-- 1 ubuntu ubuntu 168K Dec 23 12:45 hero-history.jpg
-rw-rw-r-- 1 ubuntu ubuntu 187K Dec 23 12:45 hero-models.jpg
-rw-rw-r-- 1 ubuntu ubuntu 186K Dec 23 12:45 hero-news.jpg
-rw-rw-r-- 1 ubuntu ubuntu 529K Dec 23 12:45 hero-promo-1400audace.jpg
-rw-rw-r-- 1 ubuntu ubuntu  98K Dec 23 12:45 hero-promo-95sale.jpg
-rw-rw-r-- 1 ubuntu ubuntu 334K Dec 23 12:45 hero-promo-audace.jpg
-rw-rw-r-- 1 ubuntu ubuntu 290K Dec 23 12:45 hero-test-ride.jpg
-rw-rw-r-- 1 ubuntu ubuntu 757K Dec 23 12:45 hero-v7-II-stornello.jpg
-rw-rw-r-- 1 ubuntu ubuntu 156K Dec 23 12:45 hero-v9-bobber.jpg
-rw-rw-r-- 1 ubuntu ubuntu 150K Dec 23 12:45 hero-v9-roamer.jpg
-rw-rw-r-- 1 ubuntu ubuntu  22K Dec 23 12:45 history1.jpg
-rw-rw-r-- 1 ubuntu ubuntu  30K Dec 23 12:45 history2.jpg
-rw-rw-r-- 1 ubuntu ubuntu  25K Dec 23 12:45 history3.jpg
-rw-rw-r-- 1 ubuntu ubuntu 127K Dec 23 12:45 home_promo-95sale.jpg
-rw-rw-r-- 1 ubuntu ubuntu 342K Dec 23 12:45 home-v7-II-racer.jpg
-rw-rw-r-- 1 ubuntu ubuntu 453K Dec 23 12:45 home-v7-II-special.jpg
-rw-rw-r-- 1 ubuntu ubuntu 267K Dec 23 12:45 home-v9-bobber.jpg
-rw-rw-r-- 1 ubuntu ubuntu 263K Dec 23 12:45 home-v9-roamer.jpg
-rw-rw-r-- 1 ubuntu ubuntu 1.3K Dec 23 12:45 instagram-footer.png
-rw-rw-r-- 1 ubuntu ubuntu 8.3K Dec 23 12:45 loading.gif
-rw-rw-r-- 1 ubuntu ubuntu  15K Dec 23 12:45 models-1200-sport-small.jpg
-rw-rw-r-- 1 ubuntu ubuntu  12K Dec 23 12:45 models-cali-audace-small.jpg
-rw-rw-r-- 1 ubuntu ubuntu  12K Dec 23 12:45 models-cali-custom-small.jpg
-rw-rw-r-- 1 ubuntu ubuntu  13K Dec 23 12:45 models-cali-eldorado-small.jpg
-rw-rw-r-- 1 ubuntu ubuntu  12K Dec 23 12:45 models-cali-touring-se-small.jpg
-rw-rw-r-- 1 ubuntu ubuntu  11K Dec 23 12:45 models-cali-touring-small2.jpg
-rw-rw-r-- 1 ubuntu ubuntu  12K Dec 23 12:45 models-cali-touring-small.jpg
-rw-rw-r-- 1 ubuntu ubuntu  13K Dec 23 12:45 models-griso-se-red-small.jpg
-rw-rw-r-- 1 ubuntu ubuntu  13K Dec 23 12:45 models-stelvio-ntx-small.jpg
-rw-rw-r-- 1 ubuntu ubuntu  14K Dec 23 12:45 models-v7-II-racer-small.jpg
-rw-rw-r-- 1 ubuntu ubuntu 9.6K Dec 23 12:45 models-v7-II-stornello.jpg
-rw-rw-r-- 1 ubuntu ubuntu  12K Dec 23 12:45 models-v7-II-stornello-small.jpg
-rw-rw-r-- 1 ubuntu ubuntu  13K Dec 23 12:45 models-v7-special-2-small.jpg
-rw-rw-r-- 1 ubuntu ubuntu  13K Dec 23 12:45 models-v7-stone-2-small.jpg
-rw-rw-r-- 1 ubuntu ubuntu 9.0K Dec 23 12:45 models-v9-bobber-small.jpg
-rw-rw-r-- 1 ubuntu ubuntu 9.9K Dec 23 12:45 models-v9-roamer-small.jpg
-rw-rw-r-- 1 ubuntu ubuntu 5.8K Dec 23 12:45 motoguzzilogo.jpg
-rw-rw-r-- 1 ubuntu ubuntu  87K Dec 23 12:45 official-video2.jpg
-rw-rw-r-- 1 ubuntu ubuntu  88K Dec 23 12:45 official-video.jpg
-rw-rw-r-- 1 ubuntu ubuntu  30K Dec 23 12:45 openhouse.jpg
-rw-rw-r-- 1 ubuntu ubuntu 1.6K Dec 23 12:45 pinterest-footer.png
-rw-rw-r-- 1 ubuntu ubuntu  15K Dec 23 12:45 promo-1400audace.jpg
-rw-rw-r-- 1 ubuntu ubuntu  56K Dec 23 12:45 promo-95sale.jpg
-rw-rw-r-- 1 ubuntu ubuntu  18K Dec 23 12:45 promo-cali2.jpg
-rw-rw-r-- 1 ubuntu ubuntu  20K Dec 23 12:45 promo-cali.jpg
-rw-rw-r-- 1 ubuntu ubuntu  18K Dec 23 12:45 promo-V7IISpecial.jpg
-rw-rw-r-- 1 ubuntu ubuntu  22K Dec 23 12:45 promo-V7IIStone.jpg
-rw-rw-r-- 1 ubuntu ubuntu 1.3K Dec 23 12:45 scroll-top-arrow.png
-rw-rw-r-- 1 ubuntu ubuntu  78K Dec 23 12:45 stelvio-ntx-green.jpg
-rw-rw-r-- 1 ubuntu ubuntu 8.1K Dec 23 12:45 stelvio-ntx-green-small.jpg
-rw-rw-r-- 1 ubuntu ubuntu 332K Dec 23 12:45 stelvio-ntx-hero.jpg
-rw-rw-r-- 1 ubuntu ubuntu 407K Dec 23 12:45 stelvio-ntx-img1.jpg
-rw-rw-r-- 1 ubuntu ubuntu 330K Dec 23 12:45 stelvio-ntx-img2.jpg
-rw-rw-r-- 1 ubuntu ubuntu 549K Dec 23 12:45 stelvio-ntx-img3.jpg
-rw-rw-r-- 1 ubuntu ubuntu 554K Dec 23 12:45 stelvio-ntx-img4.jpg
-rw-rw-r-- 1 ubuntu ubuntu 659K Dec 23 12:45 stelvio-ntx-img5.jpg
-rw-rw-r-- 1 ubuntu ubuntu 293K Dec 23 12:45 stelvio-ntx-img6.jpg
-rw-rw-r-- 1 ubuntu ubuntu  26K Dec 23 12:45 tech-1200sport.jpg
-rw-rw-r-- 1 ubuntu ubuntu  28K Dec 23 12:45 tech-audace-2.jpg
-rw-rw-r-- 1 ubuntu ubuntu  16K Dec 23 12:45 tech-audace-pipe.jpg
-rw-rw-r-- 1 ubuntu ubuntu  16K Dec 23 12:45 tech-custom-dash.jpg
-rw-rw-r-- 1 ubuntu ubuntu  23K Dec 23 12:45 tech-custom-wheel.jpg
-rw-rw-r-- 1 ubuntu ubuntu  14K Dec 23 12:45 tech-eldorado-multimedia.jpg
-rw-rw-r-- 1 ubuntu ubuntu  27K Dec 23 12:45 tech-eldorado-wheel.jpg
-rw-rw-r-- 1 ubuntu ubuntu  36K Dec 23 12:45 tech-stelvio-ntx.jpg
-rw-rw-r-- 1 ubuntu ubuntu  21K Dec 23 12:45 tech-touring2.jpg
-rw-rw-r-- 1 ubuntu ubuntu  15K Dec 23 12:45 tech-touring-dash.jpg
-rw-rw-r-- 1 ubuntu ubuntu  29K Dec 23 12:45 tech-touring.jpg
-rw-rw-r-- 1 ubuntu ubuntu  11K Dec 23 12:45 tech-touring-MGTC.jpg
-rw-rw-r-- 1 ubuntu ubuntu  20K Dec 23 12:45 tech-touring-wheel.jpg
-rw-rw-r-- 1 ubuntu ubuntu  23K Dec 23 12:45 tech-v7IIracer.jpg
-rw-rw-r-- 1 ubuntu ubuntu  25K Dec 23 12:45 tech-v7IIspecial.jpg
-rw-rw-r-- 1 ubuntu ubuntu  25K Dec 23 12:45 tech-v7IIstone.jpg
-rw-rw-r-- 1 ubuntu ubuntu  24K Dec 23 12:45 tech-v7IIstornello.jpg
-rw-rw-r-- 1 ubuntu ubuntu  14K Dec 23 12:45 tech-v9-bobber.jpg
-rw-rw-r-- 1 ubuntu ubuntu  15K Dec 23 12:45 tech-v9-roamer.jpg
-rw-rw-r-- 1 ubuntu ubuntu 2.0M Dec 23 12:45 Thumbs.db
-rw-rw-r-- 1 ubuntu ubuntu 3.0K Dec 23 12:45 tools.png
-rw-rw-r-- 1 ubuntu ubuntu 208K Dec 23 12:45 v7-2-stone-hero-promo.jpg
-rw-rw-r-- 1 ubuntu ubuntu  58K Dec 23 12:45 v7-II-racer-chrome.jpg
-rw-rw-r-- 1 ubuntu ubuntu 6.1K Dec 23 12:45 v7-II-racer-chrome-small.jpg
-rw-rw-r-- 1 ubuntu ubuntu 183K Dec 23 12:45 v7-II-racer-hero.jpg
-rw-rw-r-- 1 ubuntu ubuntu 147K Dec 23 12:45 v7-II-racer-img1.jpg
-rw-rw-r-- 1 ubuntu ubuntu 179K Dec 23 12:45 v7-II-racer-img2.jpg
-rw-rw-r-- 1 ubuntu ubuntu 190K Dec 23 12:45 v7-II-racer-img3.jpg
-rw-rw-r-- 1 ubuntu ubuntu 147K Dec 23 12:45 v7-II-racer-img4.jpg
-rw-rw-r-- 1 ubuntu ubuntu 189K Dec 23 12:45 v7-II-racer-img5.jpg
-rw-rw-r-- 1 ubuntu ubuntu 170K Dec 23 12:45 v7-II-racer-img6.jpg
-rw-rw-r-- 1 ubuntu ubuntu  93K Dec 23 12:45 v7-II-racer-img7.jpg
-rw-rw-r-- 1 ubuntu ubuntu  40K Dec 23 12:45 v7-II-racer-latdx.jpg
-rw-rw-r-- 1 ubuntu ubuntu 4.4K Dec 23 12:45 v7-II-racer-latdx-small.jpg
-rw-rw-r-- 1 ubuntu ubuntu 356K Dec 23 12:45 v7-II-special-hero.jpg
-rw-rw-r-- 1 ubuntu ubuntu 273K Dec 23 12:45 v7-II-special-img1.jpg
-rw-rw-r-- 1 ubuntu ubuntu 278K Dec 23 12:45 v7-II-special-img2.jpg
-rw-rw-r-- 1 ubuntu ubuntu 353K Dec 23 12:45 v7-II-special-img3.jpg
-rw-rw-r-- 1 ubuntu ubuntu 316K Dec 23 12:45 v7-II-special-img4.jpg
-rw-rw-r-- 1 ubuntu ubuntu 245K Dec 23 12:45 v7-II-special-img5.jpg
-rw-rw-r-- 1 ubuntu ubuntu 288K Dec 23 12:45 v7-II-special-img6.jpg
-rw-rw-r-- 1 ubuntu ubuntu  85K Dec 23 12:45 v7-II-special-orange.jpg
-rw-rw-r-- 1 ubuntu ubuntu 8.1K Dec 23 12:45 v7-II-special-orange-small.jpg
-rw-rw-r-- 1 ubuntu ubuntu  87K Dec 23 12:45 v7-II-special-red.jpg
-rw-rw-r-- 1 ubuntu ubuntu 8.2K Dec 23 12:45 v7-II-special-red-small.jpg
-rw-rw-r-- 1 ubuntu ubuntu  80K Dec 23 12:45 v7-II-stone-black.jpg
-rw-rw-r-- 1 ubuntu ubuntu 8.4K Dec 23 12:45 v7-II-stone-black-small.jpg
-rw-rw-r-- 1 ubuntu ubuntu 358K Dec 23 12:45 v7-II-stone-hero.jpg
-rw-rw-r-- 1 ubuntu ubuntu 329K Dec 23 12:45 v7-II-stone-img1.jpg
-rw-rw-r-- 1 ubuntu ubuntu 427K Dec 23 12:45 v7-II-stone-img2.jpg
-rw-rw-r-- 1 ubuntu ubuntu 383K Dec 23 12:45 v7-II-stone-img3.jpg
-rw-rw-r-- 1 ubuntu ubuntu 256K Dec 23 12:45 v7-II-stone-img4.jpg
-rw-rw-r-- 1 ubuntu ubuntu 318K Dec 23 12:45 v7-II-stone-img5.jpg
-rw-rw-r-- 1 ubuntu ubuntu 691K Dec 23 12:45 v7-II-stone-img6.jpg
-rw-rw-r-- 1 ubuntu ubuntu  83K Dec 23 12:45 v7-II-stone-red.jpg
-rw-rw-r-- 1 ubuntu ubuntu 8.7K Dec 23 12:45 v7-II-stone-red-small.jpg
-rw-rw-r-- 1 ubuntu ubuntu  54K Dec 23 12:45 v7-II-stornello.jpg
-rw-rw-r-- 1 ubuntu ubuntu 6.1K Dec 23 12:45 v7-II-stornello-small.jpg
-rw-rw-r-- 1 ubuntu ubuntu  29K Dec 23 12:45 v9-bobber-black.jpg
-rw-rw-r-- 1 ubuntu ubuntu 4.5K Dec 23 12:45 v9-bobber-black-small.jpg
-rw-rw-r-- 1 ubuntu ubuntu  29K Dec 23 12:45 v9-bobber-grey.jpg
-rw-rw-r-- 1 ubuntu ubuntu 4.6K Dec 23 12:45 v9-bobber-grey-small.jpg
-rw-rw-r-- 1 ubuntu ubuntu  30K Dec 23 12:45 v9-roamer-red.jpg
-rw-rw-r-- 1 ubuntu ubuntu 4.6K Dec 23 12:45 v9-roamer-red-small.jpg
-rw-rw-r-- 1 ubuntu ubuntu 4.1K Dec 23 12:45 v9-roamer-red-xs.jpg
-rw-rw-r-- 1 ubuntu ubuntu  31K Dec 23 12:45 v9-roamer-white.jpg
-rw-rw-r-- 1 ubuntu ubuntu 4.5K Dec 23 12:45 v9-roamer-white-small.jpg
-rw-rw-r-- 1 ubuntu ubuntu 3.9K Dec 23 12:45 v9-roamer-white-xs.jpg
-rw-rw-r-- 1 ubuntu ubuntu  30K Dec 23 12:45 v9-roamer-yellow.jpg
-rw-rw-r-- 1 ubuntu ubuntu 4.7K Dec 23 12:45 v9-roamer-yellow-small.jpg
-rw-rw-r-- 1 ubuntu ubuntu 4.1K Dec 23 12:45 v9-roamer-yellow-xs.jpg
-rw-rw-r-- 1 ubuntu ubuntu  31K Dec 23 12:45 video-image.jpg
-rw-rw-r-- 1 ubuntu ubuntu 1.5K Dec 23 12:45 youtube-footer.png
-rw-rw-r-- 1 ubuntu ubuntu 9.9K Dec 23 12:45 ./images/models-v9-roamer-small.jpg
-rw-rw-r-- 1 ubuntu ubuntu 757K Dec 23 12:45 ./images/hero-v7-II-stornello.jpg
-rw-rw-r-- 1 ubuntu ubuntu 87K Dec 23 12:45 ./images/1200-sport-corsa.jpg
-rw-rw-r-- 1 ubuntu ubuntu 186K Dec 23 12:45 ./images/hero-news.jpg
-rw-rw-r-- 1 ubuntu ubuntu 79K Dec 23 12:45 ./images/fea-cali-custom.jpg
-rw-rw-r-- 1 ubuntu ubuntu 163K Dec 23 12:45 ./images/gal-stornello-img4.jpg
-rw-rw-r-- 1 ubuntu ubuntu 36K Dec 23 12:45 ./images/tech-stelvio-ntx.jpg
-rw-rw-r-- 1 ubuntu ubuntu 196K Dec 23 12:45 ./images/cali-touring-se-new2.jpg
-rw-rw-r-- 1 ubuntu ubuntu 15K Dec 23 12:45 ./images/tech-touring-dash.jpg
-rw-rw-r-- 1 ubuntu ubuntu 5.6K Dec 23 12:45 ./images/cali-eldorado-red-small.jpg
-rw-rw-r-- 1 ubuntu ubuntu 56K Dec 23 12:45 ./images/promo-95sale.jpg
-rw-rw-r-- 1 ubuntu ubuntu 175K Dec 23 12:45 ./images/griso-se-img1.jpg
-rw-rw-r-- 1 ubuntu ubuntu 342K Dec 23 12:45 ./images/home-v7-II-racer.jpg
-rw-rw-r-- 1 ubuntu ubuntu 5.5K Dec 23 12:45 ./images/cali-eldorado-black-small.jpg
-rw-rw-r-- 1 ubuntu ubuntu 8.7K Dec 23 12:45 ./images/v7-II-stone-red-small.jpg
-rw-rw-r-- 1 ubuntu ubuntu 554K Dec 23 12:45 ./images/stelvio-ntx-img4.jpg
-rw-rw-r-- 1 ubuntu ubuntu 21K Dec 23 12:45 ./images/tech-touring2.jpg
-rw-rw-r-- 1 ubuntu ubuntu 80K Dec 23 12:45 ./images/v7-II-stone-black.jpg
-rw-rw-r-- 1 ubuntu ubuntu 119K Dec 23 12:45 ./images/fea-v7-II-racer.jpg
-rw-rw-r-- 1 ubuntu ubuntu 549K Dec 23 12:45 ./images/stelvio-ntx-img3.jpg
-rw-rw-r-- 1 ubuntu ubuntu 188K Dec 23 12:45 ./images/cali-eldorado-img2.jpg
-rw-rw-r-- 1 ubuntu ubuntu 12K Dec 23 12:45 ./images/models-cali-touring-small.jpg
-rw-rw-r-- 1 ubuntu ubuntu 407K Dec 23 12:45 ./images/stelvio-ntx-img1.jpg
-rw-rw-r-- 1 ubuntu ubuntu 7.8K Dec 23 12:45 ./images/cali-touring-black-small.jpg
-rw-rw-r-- 1 ubuntu ubuntu 4.1K Dec 23 12:45 ./images/v9-roamer-red-xs.jpg
-rw-rw-r-- 1 ubuntu ubuntu 423K Dec 23 12:45 ./images/1200-sport-img4.jpg
-rw-rw-r-- 1 ubuntu ubuntu 163K Dec 23 12:45 ./images/cali-audace-img4.jpg
-rw-rw-r-- 1 ubuntu ubuntu 117K Dec 23 12:45 ./images/gal-roamer-img7.jpg
-rw-rw-r-- 1 ubuntu ubuntu 20K Dec 23 12:45 ./images/bike.png
-rw-rw-r-- 1 ubuntu ubuntu 11K Dec 23 12:45 ./images/models-cali-touring-small2.jpg
-rw-rw-r-- 1 ubuntu ubuntu 8.3K Dec 23 12:45 ./images/loading.gif
-rw-rw-r-- 1 ubuntu ubuntu 135K Dec 23 12:45 ./images/gal-stornello-img1.jpg
-rw-rw-r-- 1 ubuntu ubuntu 358K Dec 23 12:45 ./images/v7-II-stone-hero.jpg
-rw-rw-r-- 1 ubuntu ubuntu 50K Dec 23 12:45 ./images/cali-eldorado-black.jpg
-rw-rw-r-- 1 ubuntu ubuntu 20K Dec 23 12:45 ./images/promo-cali.jpg
-rw-rw-r-- 1 ubuntu ubuntu 112K Dec 23 12:45 ./images/fea-v7-II-special.jpg
-rw-rw-r-- 1 ubuntu ubuntu 267K Dec 23 12:45 ./images/home-v9-bobber.jpg
-rw-rw-r-- 1 ubuntu ubuntu 225K Dec 23 12:45 ./images/cali-eldorado-hero.jpg
-rw-rw-r-- 1 ubuntu ubuntu 125K Dec 23 12:45 ./images/cali-touring-se-img3.jpg
-rw-rw-r-- 1 ubuntu ubuntu 27K Dec 23 12:45 ./images/tech-eldorado-wheel.jpg
-rw-rw-r-- 1 ubuntu ubuntu 29K Dec 23 12:45 ./images/tech-touring.jpg
-rw-rw-r-- 1 ubuntu ubuntu 94K Dec 23 12:45 ./images/cali-touring-se-img5.jpg
-rw-rw-r-- 1 ubuntu ubuntu 28K Dec 23 12:45 ./images/tech-audace-2.jpg
-rw-rw-r-- 1 ubuntu ubuntu 539K Dec 23 12:45 ./images/cali-hero-promo.jpg
-rw-rw-r-- 1 ubuntu ubuntu 147K Dec 23 12:45 ./images/v7-II-racer-img1.jpg
-rw-rw-r-- 1 ubuntu ubuntu 13K Dec 23 12:45 ./images/models-stelvio-ntx-small.jpg
-rw-rw-r-- 1 ubuntu ubuntu 321K Dec 23 12:45 ./images/1200-sport-img2.jpg
-rw-rw-r-- 1 ubuntu ubuntu 8.4K Dec 23 12:45 ./images/v7-II-stone-black-small.jpg
-rw-rw-r-- 1 ubuntu ubuntu 150K Dec 23 12:45 ./images/hero-v9-roamer.jpg
-rw-rw-r-- 1 ubuntu ubuntu 119K Dec 23 12:45 ./images/cali-audace-img5.jpg
-rw-rw-r-- 1 ubuntu ubuntu 72K Dec 23 12:45 ./images/cali-touring-white.jpg
-rw-rw-r-- 1 ubuntu ubuntu 148K Dec 23 12:45 ./images/gal-roamer-img5.jpg
-rw-rw-r-- 1 ubuntu ubuntu 49K Dec 23 12:45 ./images/cali-audace-black.jpg
-rw-rw-r-- 1 ubuntu ubuntu 126K Dec 23 12:45 ./images/cali-touring-se-img6.jpg
-rw-rw-r-- 1 ubuntu ubuntu 95K Dec 23 12:45 ./images/gal-bobber-img6.jpg
-rw-rw-r-- 1 ubuntu ubuntu 437K Dec 23 12:45 ./images/cali-touring-se-hero.jpg
-rw-rw-r-- 1 ubuntu ubuntu 142K Dec 23 12:45 ./images/gal-stornello-img2.jpg
-rw-rw-r-- 1 ubuntu ubuntu 296K Dec 23 12:45 ./images/1200-sport-img6.jpg
-rw-rw-r-- 1 ubuntu ubuntu 152K Dec 23 12:45 ./images/cali-touring-se-new.jpg
-rw-rw-r-- 1 ubuntu ubuntu 58K Dec 23 12:45 ./images/gal-roamer-img8.jpg
-rw-rw-r-- 1 ubuntu ubuntu 169K Dec 23 12:45 ./images/gal-stornello-img5.jpg
-rw-rw-r-- 1 ubuntu ubuntu 14K Dec 23 12:45 ./images/tech-v9-bobber.jpg
-rw-rw-r-- 1 ubuntu ubuntu 4.5K Dec 23 12:45 ./images/v9-bobber-black-small.jpg
-rw-rw-r-- 1 ubuntu ubuntu 4.4K Dec 23 12:45 ./images/v7-II-racer-latdx-small.jpg
-rw-rw-r-- 1 ubuntu ubuntu 12K Dec 23 12:45 ./images/models-cali-audace-small.jpg
-rw-rw-r-- 1 ubuntu ubuntu 263K Dec 23 12:45 ./images/home-v9-roamer.jpg
-rw-rw-r-- 1 ubuntu ubuntu 277K Dec 23 12:45 ./images/cali-custom-img1.jpg
-rw-rw-r-- 1 ubuntu ubuntu 183K Dec 23 12:45 ./images/v7-II-racer-hero.jpg
-rw-rw-r-- 1 ubuntu ubuntu 14K Dec 23 12:45 ./images/models-v7-II-racer-small.jpg
-rw-rw-r-- 1 ubuntu ubuntu 138K Dec 23 12:45 ./images/gal-stornello-img3.jpg
-rw-rw-r-- 1 ubuntu ubuntu 12K Dec 23 12:45 ./images/models-cali-touring-se-small.jpg
-rw-rw-r-- 1 ubuntu ubuntu 67K Dec 23 12:45 ./images/cali-custom-grey.jpg
-rw-rw-r-- 1 ubuntu ubuntu 111K Dec 23 12:45 ./images/gal-bobber-img3.jpg
-rw-rw-r-- 1 ubuntu ubuntu 16K Dec 23 12:45 ./images/tech-custom-dash.jpg
-rw-rw-r-- 1 ubuntu ubuntu 129K Dec 23 12:45 ./images/griso-se-img2.jpg
-rw-rw-r-- 1 ubuntu ubuntu 51K Dec 23 12:45 ./images/fea-v9-bobber.jpg
-rw-rw-r-- 1 ubuntu ubuntu 85K Dec 23 12:45 ./images/fea-cali-touring.jpg
-rw-rw-r-- 1 ubuntu ubuntu 427K Dec 23 12:45 ./images/v7-II-stone-img2.jpg
-rw-rw-r-- 1 ubuntu ubuntu 4.6K Dec 23 12:45 ./images/v9-bobber-grey-small.jpg
-rw-rw-r-- 1 ubuntu ubuntu 691K Dec 23 12:45 ./images/v7-II-stone-img6.jpg
-rw-rw-r-- 1 ubuntu ubuntu 353K Dec 23 12:45 ./images/v7-II-special-img3.jpg
-rw-rw-r-- 1 ubuntu ubuntu 127K Dec 23 12:45 ./images/cali-audace-hero.jpg
-rw-rw-r-- 1 ubuntu ubuntu 89K Dec 23 12:45 ./images/gal-bobber-img5.jpg
-rw-rw-r-- 1 ubuntu ubuntu 105K Dec 23 12:45 ./images/gal-roamer-img3.jpg
-rw-rw-r-- 1 ubuntu ubuntu 293K Dec 23 12:45 ./images/stelvio-ntx-img6.jpg
-rw-rw-r-- 1 ubuntu ubuntu 15K Dec 23 12:45 ./images/tech-v9-roamer.jpg
-rw-rw-r-- 1 ubuntu ubuntu 5.5K Dec 23 12:45 ./images/cali-touring-se-black-small.jpg
-rw-rw-r-- 1 ubuntu ubuntu 1.3K Dec 23 12:45 ./images/scroll-top-arrow.png
-rw-rw-r-- 1 ubuntu ubuntu 208K Dec 23 12:45 ./images/v7-2-stone-hero-promo.jpg
-rw-rw-r-- 1 ubuntu ubuntu 231K Dec 23 12:45 ./images/hero-ewan2.jpg
-rw-rw-r-- 1 ubuntu ubuntu 148K Dec 23 12:45 ./images/cali-eldorado-img5.jpg
-rw-rw-r-- 1 ubuntu ubuntu 168K Dec 23 12:45 ./images/gal-stornello-img6.jpg
-rw-rw-r-- 1 ubuntu ubuntu 190K Dec 23 12:45 ./images/fea-v7-II-stornello.jpg
-rw-rw-r-- 1 ubuntu ubuntu 529K Dec 23 12:45 ./images/hero-promo-1400audace.jpg
-rw-rw-r-- 1 ubuntu ubuntu 156K Dec 23 12:45 ./images/hero-v9-bobber.jpg
-rw-rw-r-- 1 ubuntu ubuntu 3.0K Dec 23 12:45 ./images/tools.png
-rw-rw-r-- 1 ubuntu ubuntu 5.1K Dec 23 12:45 ./images/cali-audace-black-small.jpg
-rw-rw-r-- 1 ubuntu ubuntu 334K Dec 23 12:45 ./images/hero-promo-audace.jpg
-rw-rw-r-- 1 ubuntu ubuntu 148K Dec 23 12:45 ./images/gal-bobber-img1.jpg
-rw-rw-r-- 1 ubuntu ubuntu 453K Dec 23 12:45 ./images/home-v7-II-special.jpg
-rw-rw-r-- 1 ubuntu ubuntu 232K Dec 23 12:45 ./images/cali-touring-hero.jpg
-rw-rw-r-- 1 ubuntu ubuntu 8.8K Dec 23 12:45 ./images/griso-se-red-small.jpg
-rw-rw-r-- 1 ubuntu ubuntu 78K Dec 23 12:45 ./images/stelvio-ntx-green.jpg
-rw-rw-r-- 1 ubuntu ubuntu 109K Dec 23 12:45 ./images/cali-touring-se-img1.jpg
-rw-rw-r-- 1 ubuntu ubuntu 341K Dec 23 12:45 ./images/cali-touring-img4.jpg
-rw-rw-r-- 1 ubuntu ubuntu 273K Dec 23 12:45 ./images/v7-II-special-img1.jpg
-rw-rw-r-- 1 ubuntu ubuntu 8.1K Dec 23 12:45 ./images/v7-II-special-orange-small.jpg
-rw-rw-r-- 1 ubuntu ubuntu 9.0K Dec 23 12:45 ./images/models-v9-bobber-small.jpg
-rw-rw-r-- 1 ubuntu ubuntu 22K Dec 23 12:45 ./images/promo-V7IIStone.jpg
-rw-rw-r-- 1 ubuntu ubuntu 54K Dec 23 12:45 ./images/v7-II-stornello.jpg
-rw-rw-r-- 1 ubuntu ubuntu 526K Dec 23 12:45 ./images/1200-sport-img5.jpg
-rw-rw-r-- 1 ubuntu ubuntu 87K Dec 23 12:45 ./images/official-video2.jpg
-rw-rw-r-- 1 ubuntu ubuntu 122K Dec 23 12:45 ./images/fea-cali-touring-se.jpg
-rw-rw-r-- 1 ubuntu ubuntu 88K Dec 23 12:45 ./images/official-video.jpg
-rw-rw-r-- 1 ubuntu ubuntu 18K Dec 23 12:45 ./images/promo-cali2.jpg
-rw-rw-r-- 1 ubuntu ubuntu 438K Dec 23 12:45 ./images/cali-custom-img3.jpg
-rw-rw-r-- 1 ubuntu ubuntu 109K Dec 23 12:45 ./images/fea-cali-eldorado.jpg
-rw-rw-r-- 1 ubuntu ubuntu 170K Dec 23 12:45 ./images/v7-II-racer-img6.jpg
-rw-rw-r-- 1 ubuntu ubuntu 151K Dec 23 12:45 ./images/cali-touring-se-img4.jpg
-rw-rw-r-- 1 ubuntu ubuntu 20K Dec 23 12:45 ./images/bike2.png
-rw-rw-r-- 1 ubuntu ubuntu 1.3K Dec 23 12:45 ./images/facebook-footer.png
-rw-rw-r-- 1 ubuntu ubuntu 78K Dec 23 12:45 ./images/fea-v7-II-stone.jpg
-rw-rw-r-- 1 ubuntu ubuntu 87K Dec 23 12:45 ./images/v7-II-special-red.jpg
-rw-rw-r-- 1 ubuntu ubuntu 81K Dec 23 12:45 ./images/gal-bobber-img2.jpg
-rw-rw-r-- 1 ubuntu ubuntu 332K Dec 23 12:45 ./images/stelvio-ntx-hero.jpg
-rw-rw-r-- 1 ubuntu ubuntu 1.6K Dec 23 12:45 ./images/pinterest-footer.png
-rw-rw-r-- 1 ubuntu ubuntu 6.1K Dec 23 12:45 ./images/v7-II-racer-chrome-small.jpg
-rw-rw-r-- 1 ubuntu ubuntu 149K Dec 23 12:45 ./images/cali-audace-img6.jpg
-rw-rw-r-- 1 ubuntu ubuntu 13K Dec 23 12:45 ./images/models-cali-eldorado-small.jpg
-rw-rw-r-- 1 ubuntu ubuntu 126K Dec 23 12:45 ./images/cali-touring-se-img2.jpg
-rw-rw-r-- 1 ubuntu ubuntu 23K Dec 23 12:45 ./images/tech-custom-wheel.jpg
-rw-rw-r-- 1 ubuntu ubuntu 9.6K Dec 23 12:45 ./images/models-v7-II-stornello.jpg
-rw-rw-r-- 1 ubuntu ubuntu 4.5K Dec 23 12:45 ./images/v9-roamer-white-small.jpg
-rw-rw-r-- 1 ubuntu ubuntu 278K Dec 23 12:45 ./images/v7-II-special-img2.jpg
-rw-rw-r-- 1 ubuntu ubuntu 30K Dec 23 12:45 ./images/v9-roamer-yellow.jpg
-rw-rw-r-- 1 ubuntu ubuntu 287K Dec 23 12:45 ./images/cali-custom-img5.jpg
-rw-rw-r-- 1 ubuntu ubuntu 245K Dec 23 12:45 ./images/v7-II-special-img5.jpg
-rw-rw-r-- 1 ubuntu ubuntu 168K Dec 23 12:45 ./images/hero-history.jpg
-rw-rw-r-- 1 ubuntu ubuntu 144K Dec 23 12:45 ./images/gal-roamer-img6.jpg
-rw-rw-r-- 1 ubuntu ubuntu 190K Dec 23 12:45 ./images/v7-II-racer-img3.jpg
-rw-rw-r-- 1 ubuntu ubuntu 90K Dec 23 12:45 ./images/cali-audace-img2.jpg
-rw-rw-r-- 1 ubuntu ubuntu 84K Dec 23 12:45 ./images/gal-bobber-img4.jpg
-rw-rw-r-- 1 ubuntu ubuntu 288K Dec 23 12:45 ./images/v7-II-special-img6.jpg
-rw-rw-r-- 1 ubuntu ubuntu 22K Dec 23 12:45 ./images/history1.jpg
-rw-rw-r-- 1 ubuntu ubuntu 7.6K Dec 23 12:45 ./images/cali-touring-white-small.jpg
-rw-rw-r-- 1 ubuntu ubuntu 179K Dec 23 12:45 ./images/v7-II-racer-img2.jpg
-rw-rw-r-- 1 ubuntu ubuntu 125K Dec 23 12:45 ./images/ewen_video.jpg
-rw-rw-r-- 1 ubuntu ubuntu 31K Dec 23 12:45 ./images/v9-roamer-white.jpg
-rw-rw-r-- 1 ubuntu ubuntu 98K Dec 23 12:45 ./images/hero-promo-95sale.jpg
-rw-rw-r-- 1 ubuntu ubuntu 648K Dec 23 12:45 ./images/griso-se-img5.jpg
-rw-rw-r-- 1 ubuntu ubuntu 164K Dec 23 12:45 ./images/griso-se-img3.jpg
-rw-rw-r-- 1 ubuntu ubuntu 193K Dec 23 12:45 ./images/hero-dealer.jpg
-rw-rw-r-- 1 ubuntu ubuntu 72K Dec 23 12:45 ./images/cali-custom-black.jpg
-rw-rw-r-- 1 ubuntu ubuntu 127K Dec 23 12:45 ./images/home_promo-95sale.jpg
-rw-rw-r-- 1 ubuntu ubuntu 141K Dec 23 12:45 ./images/gal-roamer-img2.jpg
-rw-rw-r-- 1 ubuntu ubuntu 194K Dec 23 12:45 ./images/cali-eldorado-img1.jpg
-rw-rw-r-- 1 ubuntu ubuntu 147K Dec 23 12:45 ./images/v7-II-racer-img4.jpg
-rw-rw-r-- 1 ubuntu ubuntu 14K Dec 23 12:45 ./images/tech-eldorado-multimedia.jpg
-rw-rw-r-- 1 ubuntu ubuntu 5.8K Dec 23 12:45 ./images/motoguzzilogo.jpg
-rw-rw-r-- 1 ubuntu ubuntu 30K Dec 23 12:45 ./images/history2.jpg
-rw-rw-r-- 1 ubuntu ubuntu 31K Dec 23 12:45 ./images/video-image.jpg
-rw-rw-r-- 1 ubuntu ubuntu 6.1K Dec 23 12:45 ./images/v7-II-stornello-small.jpg
-rw-rw-r-- 1 ubuntu ubuntu 610K Dec 23 12:45 ./images/griso-se-hero.jpg
-rw-rw-r-- 1 ubuntu ubuntu 29K Dec 23 12:45 ./images/v9-bobber-grey.jpg
-rw-rw-r-- 1 ubuntu ubuntu 57K Dec 23 12:45 ./images/gal-roamer-img1.jpg
-rw-rw-r-- 1 ubuntu ubuntu 1.5K Dec 23 12:45 ./images/youtube-footer.png
-rw-rw-r-- 1 ubuntu ubuntu 83K Dec 23 12:45 ./images/v7-II-stone-red.jpg
-rw-rw-r-- 1 ubuntu ubuntu 423K Dec 23 12:45 ./images/cali-touring-img2.jpg
-rw-rw-r-- 1 ubuntu ubuntu 569K Dec 23 12:45 ./images/hero-eldorado.jpg
-rw-rw-r-- 1 ubuntu ubuntu 15K Dec 23 12:45 ./images/promo-1400audace.jpg
-rw-rw-r-- 1 ubuntu ubuntu 159K Dec 23 12:45 ./images/cali-eldorado-img3.jpg
-rw-rw-r-- 1 ubuntu ubuntu 480K Dec 23 12:45 ./images/cali-custom-img4.jpg
-rw-rw-r-- 1 ubuntu ubuntu 306K Dec 23 12:45 ./images/cali-touring-img3.jpg
-rw-rw-r-- 1 ubuntu ubuntu 12K Dec 23 12:45 ./images/models-cali-custom-small.jpg
-rw-rw-r-- 1 ubuntu ubuntu 256K Dec 23 12:45 ./images/v7-II-stone-img4.jpg
-rw-rw-r-- 1 ubuntu ubuntu 8.1K Dec 23 12:45 ./images/stelvio-ntx-green-small.jpg
-rw-rw-r-- 1 ubuntu ubuntu 4.1K Dec 23 12:45 ./images/v9-roamer-yellow-xs.jpg
-rw-rw-r-- 1 ubuntu ubuntu 292K Dec 23 12:45 ./images/griso-se-img4.jpg
-rw-rw-r-- 1 ubuntu ubuntu 77K Dec 23 12:45 ./images/gal-bobber-img7.jpg
-rw-rw-r-- 1 ubuntu ubuntu 186K Dec 23 12:45 ./images/hero-ewan.jpg
-rw-rw-r-- 1 ubuntu ubuntu 12K Dec 23 12:45 ./images/models-v7-II-stornello-small.jpg
-rw-rw-r-- 1 ubuntu ubuntu 18K Dec 23 12:45 ./images/promo-V7IISpecial.jpg
-rw-rw-r-- 1 ubuntu ubuntu 109K Dec 23 12:45 ./images/fea-cali-audace.jpg
-rw-rw-r-- 1 ubuntu ubuntu 342K Dec 23 12:45 ./images/cali-touring-img1.jpg
-rw-rw-r-- 1 ubuntu ubuntu 26K Dec 23 12:45 ./images/tech-1200sport.jpg
-rw-rw-r-- 1 ubuntu ubuntu 330K Dec 23 12:45 ./images/cali-touring-img5.jpg
-rw-rw-r-- 1 ubuntu ubuntu 85K Dec 23 12:45 ./images/v7-II-special-orange.jpg
-rw-rw-r-- 1 ubuntu ubuntu 13K Dec 23 12:45 ./images/models-v7-stone-2-small.jpg
-rw-rw-r-- 1 ubuntu ubuntu 2.0M Dec 23 12:45 ./images/Thumbs.db
-rw-rw-r-- 1 ubuntu ubuntu 88K Dec 23 12:45 ./images/griso-se-red.jpg
-rw-rw-r-- 1 ubuntu ubuntu 13K Dec 23 12:45 ./images/models-v7-special-2-small.jpg
-rw-rw-r-- 1 ubuntu ubuntu 53K Dec 23 12:45 ./images/cali-touring-se-black.jpg
-rw-rw-r-- 1 ubuntu ubuntu 30K Dec 23 12:45 ./images/openhouse.jpg
-rw-rw-r-- 1 ubuntu ubuntu 4.6K Dec 23 12:45 ./images/v9-roamer-red-small.jpg
-rw-rw-r-- 1 ubuntu ubuntu 1.3K Dec 23 12:45 ./images/instagram-footer.png
-rw-rw-r-- 1 ubuntu ubuntu 8.2K Dec 23 12:45 ./images/v7-II-special-red-small.jpg
-rw-rw-r-- 1 ubuntu ubuntu 356K Dec 23 12:45 ./images/v7-II-special-hero.jpg
-rw-rw-r-- 1 ubuntu ubuntu 25K Dec 23 12:45 ./images/tech-v7IIstone.jpg
-rw-rw-r-- 1 ubuntu ubuntu 290K Dec 23 12:45 ./images/hero-test-ride.jpg
-rw-rw-r-- 1 ubuntu ubuntu 306K Dec 23 12:45 ./images/cali-custom-img2.jpg
-rw-rw-r-- 1 ubuntu ubuntu 53K Dec 23 12:45 ./images/fea-v9-roamer.jpg
-rw-rw-r-- 1 ubuntu ubuntu 15K Dec 23 12:45 ./images/models-1200-sport-small.jpg
-rw-rw-r-- 1 ubuntu ubuntu 187K Dec 23 12:45 ./images/hero-models.jpg
-rw-rw-r-- 1 ubuntu ubuntu 23K Dec 23 12:45 ./images/tech-v7IIracer.jpg
-rw-rw-r-- 1 ubuntu ubuntu 189K Dec 23 12:45 ./images/v7-II-racer-img5.jpg
-rw-rw-r-- 1 ubuntu ubuntu 650K Dec 23 12:45 ./images/hero-audace.jpg
-rw-rw-r-- 1 ubuntu ubuntu 24K Dec 23 12:45 ./images/tech-v7IIstornello.jpg
-rw-rw-r-- 1 ubuntu ubuntu 25K Dec 23 12:45 ./images/history3.jpg
-rw-rw-r-- 1 ubuntu ubuntu 85K Dec 23 12:45 ./images/fea-1200-sport.jpg
-rw-rw-r-- 1 ubuntu ubuntu 93K Dec 23 12:45 ./images/v7-II-racer-img7.jpg
-rw-rw-r-- 1 ubuntu ubuntu 306K Dec 23 12:45 ./images/1200-sport-img3.jpg
-rw-rw-r-- 1 ubuntu ubuntu 318K Dec 23 12:45 ./images/v7-II-stone-img5.jpg
-rw-rw-r-- 1 ubuntu ubuntu 488K Dec 23 12:45 ./images/griso-se-img6.jpg
-rw-rw-r-- 1 ubuntu ubuntu 329K Dec 23 12:45 ./images/v7-II-stone-img1.jpg
-rw-rw-r-- 1 ubuntu ubuntu 16K Dec 23 12:45 ./images/tech-audace-pipe.jpg
-rw-rw-r-- 1 ubuntu ubuntu 9.8K Dec 23 12:45 ./images/1200-sport-corsa-small.jpg
-rw-rw-r-- 1 ubuntu ubuntu 267K Dec 23 12:45 ./images/cali-touring-img6.jpg
-rw-rw-r-- 1 ubuntu ubuntu 659K Dec 23 12:45 ./images/stelvio-ntx-img5.jpg
-rw-rw-r-- 1 ubuntu ubuntu 58K Dec 23 12:45 ./images/v7-II-racer-chrome.jpg
-rw-rw-r-- 1 ubuntu ubuntu 30K Dec 23 12:45 ./images/v9-roamer-red.jpg
-rw-rw-r-- 1 ubuntu ubuntu 240K Dec 23 12:45 ./images/cali-custom-img6.jpg
-rw-rw-r-- 1 ubuntu ubuntu 158K Dec 23 12:45 ./images/cali-custom-hero.jpg
-rw-rw-r-- 1 ubuntu ubuntu 13K Dec 23 12:45 ./images/models-griso-se-red-small.jpg
-rw-rw-r-- 1 ubuntu ubuntu 11K Dec 23 12:45 ./images/tech-touring-MGTC.jpg
-rw-rw-r-- 1 ubuntu ubuntu 29K Dec 23 12:45 ./images/v9-bobber-black.jpg
-rw-rw-r-- 1 ubuntu ubuntu 159K Dec 23 12:45 ./images/cali-eldorado-img6.jpg
-rw-rw-r-- 1 ubuntu ubuntu 25K Dec 23 12:45 ./images/tech-v7IIspecial.jpg
-rw-rw-r-- 1 ubuntu ubuntu 57K Dec 23 12:45 ./images/gal-bobber-img8.jpg
-rw-rw-r-- 1 ubuntu ubuntu 120K Dec 23 12:45 ./images/gal-roamer-img4.jpg
-rw-rw-r-- 1 ubuntu ubuntu 111K Dec 23 12:45 ./images/fea-griso-se.jpg
-rw-rw-r-- 1 ubuntu ubuntu 145K Dec 23 12:45 ./images/cali-audace-img1.jpg
-rw-rw-r-- 1 ubuntu ubuntu 316K Dec 23 12:45 ./images/v7-II-special-img4.jpg
-rw-rw-r-- 1 ubuntu ubuntu 20K Dec 23 12:45 ./images/tech-touring-wheel.jpg
-rw-rw-r-- 1 ubuntu ubuntu 192K Dec 23 12:45 ./images/1200-sport-hero.jpg
-rw-rw-r-- 1 ubuntu ubuntu 4.7K Dec 23 12:45 ./images/v9-roamer-yellow-small.jpg
-rw-rw-r-- 1 ubuntu ubuntu 330K Dec 23 12:45 ./images/stelvio-ntx-img2.jpg
-rw-rw-r-- 1 ubuntu ubuntu 50K Dec 23 12:45 ./images/cali-eldorado-red.jpg
-rw-rw-r-- 1 ubuntu ubuntu 333K Dec 23 12:45 ./images/1200-sport-img1.jpg
-rw-rw-r-- 1 ubuntu ubuntu 154K Dec 23 12:45 ./images/cali-audace-img3.jpg
-rw-rw-r-- 1 ubuntu ubuntu 7.6K Dec 23 12:45 ./images/cali-custom-grey-small.jpg
-rw-rw-r-- 1 ubuntu ubuntu 40K Dec 23 12:45 ./images/v7-II-racer-latdx.jpg
-rw-rw-r-- 1 ubuntu ubuntu 171K Dec 23 12:45 ./images/cali-eldorado-img4.jpg
-rw-rw-r-- 1 ubuntu ubuntu 80K Dec 23 12:45 ./images/cali-touring-black.jpg
-rw-rw-r-- 1 ubuntu ubuntu 7.7K Dec 23 12:45 ./images/cali-custom-black-small.jpg
-rw-rw-r-- 1 ubuntu ubuntu 75K Dec 23 12:45 ./images/fea-stelvio-ntx.jpg
-rw-rw-r-- 1 ubuntu ubuntu 3.9K Dec 23 12:45 ./images/v9-roamer-white-xs.jpg
-rw-rw-r-- 1 ubuntu ubuntu 383K Dec 23 12:45 ./images/v7-II-stone-img3.jpg
